<?xml version="1.0" encoding="UTF-8"?>
<svg width="24px" height="24px" viewBox="0 0 24 24" version="1.1" xmlns="http://www.w3.org/2000/svg" xmlns:xlink="http://www.w3.org/1999/xlink">
    <title>tab navigation / Profile / active</title>
    <defs>
        <path d="M12.5,13.8019672 C11.2319672,13.8019672 10.1980328,12.7691803 10.1980328,11.5 C10.1980328,10.2319672 11.2319672,9.19803279 12.5,9.19803279 C13.7680328,9.19803279 14.8019672,10.2319672 14.8019672,11.5 C14.8019672,12.7691803 13.7680328,13.8019672 12.5,13.8019672 L12.5,13.8019672 Z M12.5,7.70622951 C10.4091803,7.70622951 8.70622951,9.40918033 8.70622951,11.5 C8.70622951,13.5919672 10.4091803,15.2937705 12.5,15.2937705 C14.5908197,15.2937705 16.2937705,13.5919672 16.2937705,11.5 C16.2937705,9.40918033 14.5908197,7.70622951 12.5,7.70622951 L12.5,7.70622951 Z M21.5081967,12.3090164 L19.0180328,12.704918 C18.7334426,12.7496721 18.5004918,12.955082 18.4178689,13.2304918 C18.2904918,13.6642623 18.1218033,14.075082 17.9163934,14.4514754 C17.7786885,14.7027869 17.7970492,15.012623 17.9657377,15.2455738 L19.4414754,17.2962295 L18.295082,18.442623 L16.2444262,16.9668852 C16.0103279,16.7993443 15.7016393,16.7786885 15.4491803,16.917541 C15.077377,17.1218033 14.6711475,17.2893443 14.2431148,17.4155738 C13.9677049,17.4970492 13.7645902,17.7288525 13.7186885,18.0111475 L13.3101639,20.5081967 L11.6898361,20.5081967 L11.2813115,18.0111475 C11.2354098,17.7288525 11.0322951,17.4970492 10.7568852,17.4155738 C10.3288525,17.2893443 9.92262295,17.1218033 9.55081967,16.917541 C9.29836066,16.7786885 8.98967213,16.7981967 8.75557377,16.9668852 L6.70377049,18.442623 L5.55737705,17.2962295 L7.03311475,15.2444262 C7.20180328,15.0114754 7.22016393,14.7016393 7.08245902,14.4491803 C6.87934426,14.0785246 6.71180328,13.6722951 6.58442623,13.2419672 C6.50295082,12.9665574 6.27114754,12.7634426 5.98885246,12.717541 L3.49180328,12.3113115 L3.49180328,10.6886885 L5.98885246,10.282459 C6.27114754,10.2365574 6.50295082,10.0322951 6.58442623,9.75803279 C6.71180328,9.32540984 6.88163934,8.9157377 7.08704918,8.54163934 C7.22590164,8.28803279 7.20754098,7.97819672 7.03770492,7.74409836 L5.55737705,5.70147541 L6.70262295,4.55622951 L8.75442623,6.03311475 C8.98852459,6.20180328 9.29836066,6.22131148 9.54967213,6.08245902 C9.92032787,5.87934426 10.3265574,5.71180328 10.7568852,5.58442623 C11.0322951,5.50409836 11.2354098,5.27114754 11.2813115,4.98885246 L11.6886885,2.49295082 L13.3090164,2.49295082 L13.7060656,4.98311475 C13.7508197,5.26770492 13.9562295,5.50180328 14.2327869,5.58213115 C14.6654098,5.70836066 15.0739344,5.87704918 15.4491803,6.08245902 C15.7004918,6.21901639 16.0091803,6.20065574 16.2444262,6.03311475 L18.2962295,4.55622951 L19.4414754,5.70147541 L17.9611475,7.74295082 C17.7913115,7.97704918 17.7729508,8.28688525 17.9118033,8.5404918 C18.1183607,8.91688525 18.2881967,9.32655738 18.4155738,9.75688525 C18.4970492,10.0322951 18.7277049,10.2365574 19.0111475,10.282459 L21.5081967,10.6886885 L21.5081967,12.3090164 Z M21.9236066,9.24508197 L19.697377,8.88245902 C19.6193443,8.66557377 19.5321311,8.45557377 19.4368852,8.25016393 L20.7519672,6.4347541 C21.1272131,5.92180328 21.0962295,5.24704918 20.6796721,4.8304918 L19.1695082,3.32032787 C18.7563934,2.90377049 18.085082,2.87163934 17.5686885,3.24229508 L15.7395082,4.55852459 C15.5352459,4.46327869 15.3240984,4.37606557 15.1060656,4.29918033 L14.754918,2.08213115 C14.655082,1.45557377 14.1570492,1 13.5695082,1 L11.4293443,1 C10.8452459,1 10.3460656,1.45327869 10.245082,2.07639344 L9.88245902,4.30262295 C9.66901639,4.3795082 9.46131148,4.46442623 9.25934426,4.55852459 L7.42901639,3.24229508 C6.91721311,2.87163934 6.24360656,2.90606557 5.83163934,3.31803279 L4.31803279,4.8304918 C3.90262295,5.24704918 3.87163934,5.92180328 4.2457377,6.43360656 L5.56311475,8.25131148 C5.46786885,8.45557377 5.38065574,8.66557377 5.30262295,8.88245902 L3.07639344,9.24508197 C2.45327869,9.34606557 2,9.8452459 2,10.4304918 L2,12.5706557 C2,13.1559016 2.45327869,13.6539344 3.07639344,13.754918 L5.30262295,14.1163934 C5.3795082,14.3298361 5.46442623,14.5386885 5.55852459,14.7395082 L4.24459016,16.567541 C3.8704918,17.0816393 3.90377049,17.7552459 4.31803279,18.1683607 L5.83163934,19.6819672 C6.24704918,20.0939344 6.91836066,20.1272131 7.43131148,19.7565574 L9.2604918,18.4414754 C9.46245902,18.5355738 9.66901639,18.6204918 9.88245902,18.6985246 L10.245082,20.922459 C10.3472131,21.5467213 10.8452459,22.0011475 11.4293443,22.0011475 L13.5706557,22.0011475 C14.1547541,22.0011475 14.6527869,21.5467213 14.754918,20.922459 L15.117541,18.6985246 C15.3309836,18.6204918 15.537541,18.5355738 15.7395082,18.4414754 L17.5663934,19.7554098 C18.0781967,20.1295082 18.7506557,20.095082 19.1672131,19.6819672 L20.6808197,18.1683607 C21.0939344,17.7529508 21.1260656,17.0793443 20.7554098,16.5686885 L19.4403279,14.7406557 C19.5355738,14.5352459 19.6227869,14.3229508 19.7008197,14.1072131 L21.9213115,13.7537705 C22.5467213,13.6516393 23,13.1536066 23,12.5683607 L23,10.4304918 C23,9.8452459 22.5478689,9.34721311 21.9236066,9.24508197 L21.9236066,9.24508197 Z" id="path-1"></path>
    </defs>
    <g id="tab-navigation-/-Profile-/-active" stroke="none" stroke-width="1" fill="none" fill-rule="evenodd">
        <mask id="mask-2" fill="white">
            <use xlink:href="#path-1"></use>
        </mask>
        <use id="Mask" fill="#00A4AB" xlink:href="#path-1"></use>
    </g>
</svg>