<?xml version="1.0" encoding="UTF-8"?>
<svg width="24px" height="24px" viewBox="0 0 24 24" version="1.1" xmlns="http://www.w3.org/2000/svg" xmlns:xlink="http://www.w3.org/1999/xlink">
    <title>checkbox / off</title>
    <g id="checkbox-/-off" stroke="none" stroke-width="1" fill="none" fill-rule="evenodd">
        <g id="Group-4" stroke="#BABABA">
            <rect id="Rectangle-Copy-17" x="0.5" y="0.5" width="23" height="23" rx="6"></rect>
        </g>
    </g>
</svg>