<?xml version="1.0" encoding="UTF-8"?>
<svg width="24px" height="24px" viewBox="0 0 24 24" version="1.1" xmlns="http://www.w3.org/2000/svg" xmlns:xlink="http://www.w3.org/1999/xlink">
    <title>checkbox / on</title>
    <g id="checkbox-/-on" stroke="none" stroke-width="1" fill="none" fill-rule="evenodd">
        <g id="Group-4">
            <rect id="Rectangle-Copy-17" fill="#bfbfbf" x="0" y="0" width="24" height="24" rx="6"></rect>
            <path d="M17.2516596,10.252654 L11.7185419,15.9971209 C11.5525438,16.1694646 11.3346419,16.2562029 11.11674,16.2562029 C10.8988381,16.2562029 10.6809363,16.1694646 10.5149381,15.9971209 L7.74845717,13.1248874 C7.41552556,12.7793909 7.41552556,12.2207707 7.74845717,11.8752741 C8.08123289,11.5296158 8.61912943,11.5296158 8.95206105,11.8752741 L11.11674,14.1227009 L16.0480558,9.00304068 C16.3808315,8.6573823 16.918728,8.6573823 17.2516596,9.00304068 C17.5844354,9.34853721 17.5844354,9.9069956 17.2516596,10.252654 Z" id="Path-Copy-13" fill="#FFFFFF" fill-rule="nonzero"></path>
        </g>
    </g>
</svg>