<?xml version="1.0" encoding="UTF-8"?>
<svg width="24px" height="24px" viewBox="0 0 24 24" version="1.1" xmlns="http://www.w3.org/2000/svg" xmlns:xlink="http://www.w3.org/1999/xlink">
    <title>tab navigation / Aufgaben / active</title>
    <defs>
        <path d="M14.4,6.33232247 L10.199,6.33232247 C9.757,6.33232247 9.4,5.99241416 9.4,5.57486661 L9.4,1.59822335 L2,1.59822335 C1.783,1.59822335 1.599,1.77149137 1.599,1.97695128 L1.599,19.0234954 C1.599,19.2289553 1.783,19.4022233 2,19.4022233 L14,19.4022233 C14.216,19.4022233 14.4,19.2289553 14.4,19.0234954 L14.4,6.33232247 Z M11,2.73022335 L11,4.99822335 L13.267,4.99822335 L11,2.73022335 Z M16.0000357,19.0911312 C16.0000357,20.1411317 15.099,21.000223 14,21.000223 L2,21.000223 C0.9,21.000223 -1.13686838e-13,20.1411317 -1.13686838e-13,19.0911312 L-1.13686838e-13,1.90930499 C-1.13686838e-13,0.859304505 0.9,0.000213194269 2,0.000213194269 L10.18,0.000213194269 C10.394,-0.00455953523 10.607,0.0708495909 10.765,0.221667843 L15.765,4.99439734 C15.92,5.14235196 16.002,5.33994296 16.0000357,5.5403976 L16.0000357,19.0911312 Z M8,15.2002233 C7.558,15.2002233 7.2,15.5592233 7.2,16.0002233 C7.2,16.4412233 7.558,16.8002233 8,16.8002233 L12,16.8002233 C12.441,16.8002233 12.799,16.4412233 12.799,16.0002233 C12.799,15.5592233 12.441,15.2002233 12,15.2002233 L8,15.2002233 Z M4,12.2002233 C3.558,12.2002233 3.2,12.5592233 3.2,13.0002233 C3.2,13.4412233 3.558,13.8002233 4,13.8002233 L12,13.8002233 C12.441,13.8002233 12.799,13.4412233 12.799,13.0002233 C12.799,12.5592233 12.441,12.2002233 12,12.2002233 L4,12.2002233 Z M12,10.8002233 L4,10.8002233 C3.558,10.8002233 3.2,10.4412233 3.2,10.0002233 C3.2,9.55922335 3.558,9.20022335 4,9.20022335 L12,9.20022335 C12.441,9.20022335 12.799,9.55922335 12.799,10.0002233 C12.799,10.4412233 12.441,10.8002233 12,10.8002233 Z" id="path-1"></path>
    </defs>
    <g id="tab-navigation-/-Aufgaben-/-active" stroke="none" stroke-width="1" fill="none" fill-rule="evenodd">
        <g id="Group-Copy" transform="translate(4.000000, 1.000000)">
            <mask id="mask-2" fill="white">
                <use xlink:href="#path-1"></use>
            </mask>
            <use id="Mask" fill="#00A4AB" transform="translate(8.000035, 10.500111) scale(-1, 1) translate(-8.000035, -10.500111) " xlink:href="#path-1"></use>
        </g>
    </g>
</svg>