<?xml version="1.0" encoding="UTF-8"?>
<svg width="24px" height="24px" viewBox="0 0 24 24" version="1.1" xmlns="http://www.w3.org/2000/svg" xmlns:xlink="http://www.w3.org/1999/xlink">
    <title>tab navigation / Aufgaben / inactive</title>
    <defs>
        <path d="M14.4,6.33232247 L10.199,6.33232247 C9.757,6.33232247 9.4,5.99241416 9.4,5.57486661 L9.4,1.59822335 L2,1.59822335 C1.783,1.59822335 1.599,1.77149137 1.599,1.97695128 L1.599,19.0234954 C1.599,19.2289553 1.783,19.4022233 2,19.4022233 L14,19.4022233 C14.216,19.4022233 14.4,19.2289553 14.4,19.0234954 L14.4,6.33232247 Z M11,2.73022335 L11,4.99822335 L13.267,4.99822335 L11,2.73022335 Z M16.0000357,19.0911312 C16.0000357,20.1411317 15.099,21.000223 14,21.000223 L2,21.000223 C0.9,21.000223 -1.13686838e-13,20.1411317 -1.13686838e-13,19.0911312 L-1.13686838e-13,1.90930499 C-1.13686838e-13,0.859304505 0.9,0.000213194269 2,0.000213194269 L10.18,0.000213194269 C10.394,-0.00455953523 10.607,0.0708495909 10.765,0.221667843 L15.765,4.99439734 C15.92,5.14235196 16.002,5.33994296 16.0000357,5.5403976 L16.0000357,19.0911312 Z M7.8,15 C7.358,15 7,15.359 7,15.8 C7,16.241 7.358,16.6 7.8,16.6 L11.8,16.6 C12.241,16.6 12.599,16.241 12.599,15.8 C12.599,15.359 12.241,15 11.8,15 L7.8,15 Z M3.8,12 C3.358,12 3,12.359 3,12.8 C3,13.241 3.358,13.6 3.8,13.6 L11.8,13.6 C12.241,13.6 12.599,13.241 12.599,12.8 C12.599,12.359 12.241,12 11.8,12 L3.8,12 Z M12,10.8002233 L4,10.8002233 C3.558,10.8002233 3.2,10.4412233 3.2,10.0002233 C3.2,9.55922335 3.558,9.20022335 4,9.20022335 L12,9.20022335 C12.441,9.20022335 12.799,9.55922335 12.799,10.0002233 C12.799,10.4412233 12.441,10.8002233 12,10.8002233 Z" id="path-1"></path>
    </defs>
    <g id="tab-navigation-/-Aufgaben-/-inactive" stroke="none" stroke-width="1" fill="none" fill-rule="evenodd">
        <g id="Group-Copy" transform="translate(3.000000, 1.000000)">
            <mask id="mask-2" fill="white">
                <use xlink:href="#path-1"></use>
            </mask>
            <use id="Mask" fill="#9D9D9D" transform="translate(8.000035, 10.500111) scale(-1, 1) translate(-8.000035, -10.500111) " xlink:href="#path-1"></use>
        </g>
    </g>
</svg>