<?xml version="1.0" encoding="UTF-8"?>
<svg width="24px" height="24px" viewBox="0 0 24 24" version="1.1" xmlns="http://www.w3.org/2000/svg" xmlns:xlink="http://www.w3.org/1999/xlink">
    <title>Adhoc Aufgabe</title>
    <defs>
        <path d="M14.3999667,9.44404479 L10.1989667,9.44404479 C9.7569667,9.44404479 9.3999667,9.10413647 9.3999667,8.68658893 L9.3999667,4.70994566 L5.96580635,4.70994566 L1.5989667,9.14219023 L1.5989667,22.1352177 C1.5989667,22.3406776 1.7829667,22.5139457 1.9999667,22.5139457 L13.9999667,22.5139457 C14.2159667,22.5139457 14.3999667,22.3406776 14.3999667,22.1352177 L14.3999667,9.44404479 Z M10.9999667,5.84194566 L10.9999667,8.10994566 L13.2669667,8.10994566 L10.9999667,5.84194566 Z M10.1799667,3.11193551 C10.3939667,3.10716278 10.6069667,3.18257191 10.7649667,3.33339016 L15.7649667,8.10611966 C15.9199667,8.25407427 16.0019667,8.45166528 16.0000369,8.65211992 L16.0000369,22.2028535 C16.0000369,23.252854 15.0989667,24.1119453 13.9999667,24.1119453 L1.9999667,24.1119453 C0.899966705,24.1119453 -3.3295083e-05,23.252854 -3.3295083e-05,22.2028535 L-3.3295083e-05,9.11884584 L0.00696670492,9.11172232 L1.59943267,9.14151001 L5.97133514,4.70552063 L5.9769667,3.11172232 L10.1799667,3.11193551 Z" id="path-1"></path>
    </defs>
    <g id="Adhoc-Aufgabe" stroke="none" stroke-width="1" fill="none" fill-rule="evenodd">
        <g id="Group" transform="translate(3.000000, 0.000000)">
            <mask id="mask-2" fill="white">
                <use xlink:href="#path-1"></use>
            </mask>
            <use id="Mask-Copy" fill="#00A4AB" transform="translate(8.000018, 13.611834) scale(-1, 1) translate(-8.000018, -13.611834) " xlink:href="#path-1"></use>
            <path d="M4.31341329,18 C3.91869995,18 3.599,18.359 3.599,18.8 C3.599,19.241 3.91869995,19.6 4.31341329,19.6 L7.88547973,19.6 C8.27930005,19.6 8.599,19.241 8.599,18.8 C8.599,18.359 8.27930005,18 7.88547973,18 L4.31341329,18 Z" id="Path" fill="#00A4AB"></path>
            <path d="M4.34907813,15 C3.93465996,15 3.599,15.359 3.599,15.8 C3.599,16.241 3.93465996,16.6 4.34907813,16.6 L11.8498595,16.6 C12.26334,16.6 12.599,16.241 12.599,15.8 C12.599,15.359 12.26334,15 11.8498595,15 L4.34907813,15 Z" id="Path" fill="#00A4AB"></path>
            <path d="M11.8498595,13.6 L4.34907813,13.6 C3.93465996,13.6 3.599,13.241 3.599,12.8 C3.599,12.359 3.93465996,12 4.34907813,12 L11.8498595,12 C12.26334,12 12.599,12.359 12.599,12.8 C12.599,13.241 12.26334,13.6 11.8498595,13.6 Z" id="Path" fill="#00A4AB"></path>
            <path d="M15.2,-4.01456646e-13 C15.641,-4.01375635e-13 16,0.358 16,0.8 L16,0.8 L15.9998886,3.111 L18.282931,3.11172232 C18.6900079,3.11172232 19.026363,3.41761581 19.0757011,3.81153479 L19.081931,3.91172232 C19.081931,4.35272232 18.723931,4.71172232 18.282931,4.71172232 L18.282931,4.71172232 L15.9998886,4.711 L16,7.17297662 C16,7.58005354 15.6941065,7.91640857 15.3001875,7.96574676 L15.2,7.97197662 C14.759,7.97197662 14.4,7.61397662 14.4,7.17297662 L14.4,7.17297662 L14.3998886,4.711 L12.1458886,4.71172232 C11.7378886,4.71172232 11.4014625,4.40582882 11.3521189,4.01190984 L11.3458886,3.91172232 C11.3458886,3.47072232 11.7038886,3.11172232 12.1458886,3.11172232 L12.1458886,3.11172232 L14.3998886,3.111 L14.4,0.8 C14.4,0.392 14.7058935,0.0555739645 15.0998125,0.00623031406 Z" id="Combined-Shape" fill="#00A4AB"></path>
        </g>
    </g>
</svg>