<?xml version="1.0" encoding="UTF-8"?>
<svg width="26px" height="26px" viewBox="0 0 26 26" version="1.1" xmlns="http://www.w3.org/2000/svg" xmlns:xlink="http://www.w3.org/1999/xlink">
    <title>bedarfsmedikation</title>
    <g id="bedarfsmedikation" stroke="none" stroke-width="1" fill="none" fill-rule="evenodd">
        <path d="M23.2226865,5.52743963 C22.2443106,4.54943914 20.9173182,4 19.5336505,4 C18.1499828,4 16.8229904,4.54943914 15.8446145,5.52743963 L11.186383,10.1837052 L11.1863245,10.1837052 L6.52802801,14.8399707 C4.49064589,16.8764836 4.49065901,20.1783102 6.52805731,22.2148069 C8.56545561,24.2513037 11.8687178,24.2512906 13.9061,22.2147778 L18.56439,17.5585057 L23.2226865,12.9022402 C25.260061,10.8657428 25.260061,7.56393702 23.2226865,5.52743963 L23.2226865,5.52743963 Z M22.1197145,11.7997605 L17.4612945,16.4558961 L12.2893355,11.2861978 L16.9476255,6.62993228 C17.8706705,5.70219181 19.2193832,5.33830791 20.484084,5.67579255 C21.7487848,6.01327719 22.7365987,7.00066176 23.0742301,8.26481295 C23.4118615,9.52896414 23.0478193,10.8770907 22.1196755,11.7997345 L22.1197145,11.7997605 Z" id="Shape" fill="#00A4AB" fill-rule="nonzero"></path>
        <path d="M8,1 C8.51009361,1 8.97552606,1.19104288 9.32886191,1.50528644 C9.70211803,1.83724635 9.9495749,2.3070582 9.99319356,2.83440051 L9.99319356,2.83440051 L9.99836705,6 L13,6 C13.5522847,6 14.0522847,6.22385763 14.4142136,6.58578644 C14.7761424,6.94771525 15,7.44771525 15,8 C15,8.51009361 14.8089571,8.97552606 14.4947136,9.32886191 C14.1627537,9.70211803 13.6929418,9.9495749 13.1655995,9.99319356 L13.1655995,9.99319356 L10,9.99836705 L10,13 C10,13.5522847 9.77614237,14.0522847 9.41421356,14.4142136 C9.05228475,14.7761424 8.55228475,15 8,15 C7.48990639,15 7.02447394,14.8089571 6.67113809,14.4947136 C6.29788197,14.1627537 6.0504251,13.6929418 6.00680644,13.1655995 L6.00680644,13.1655995 L6.00163295,10 L3,10 C2.44771525,10 1.94771525,9.77614237 1.58578644,9.41421356 C1.22385763,9.05228475 1,8.55228475 1,8 C1,7.48990639 1.19104288,7.02447394 1.50528644,6.67113809 C1.83724635,6.29788197 2.3070582,6.0504251 2.83440051,6.00680644 L2.83440051,6.00680644 L6,6.00163295 L6,3 C6,2.44771525 6.22385763,1.94771525 6.58578644,1.58578644 C6.94771525,1.22385763 7.44771525,1 8,1 L8,1 Z" id="Combined-Shape" stroke="#FFFFFF" stroke-width="2" fill="#00A4AB" fill-rule="nonzero"></path>
    </g>
</svg>