<?xml version="1.0" encoding="UTF-8"?>
<svg width="24px" height="24px" viewBox="0 0 24 24" version="1.1" xmlns="http://www.w3.org/2000/svg" xmlns:xlink="http://www.w3.org/1999/xlink">
    <title>Ärztliche Anordnung</title>
    <g id="Ärztliche-Anordnung" stroke="none" stroke-width="1" fill="none" fill-rule="evenodd">
        <g id="Group-4-Copy" transform="translate(2.000000, 2.000000)" fill="#00A4AB" fill-rule="nonzero">
            <path d="M20.0680583,1.77976877 L18.9268664,0.637175138 C18.0783417,-0.212391713 16.5992138,-0.212391713 15.7506891,0.637175138 L14.2747194,2.11495767 C14.2736667,2.11601173 14.2715612,2.11811983 14.2705084,2.11917389 C14.2694556,2.12022794 14.2673501,2.12233605 14.2662974,2.1233901 L5.47890873,10.9205178 C5.3820548,11.0174907 5.31994196,11.142923 5.30099227,11.2778418 L4.73039629,15.2769195 C4.70197177,15.4740275 4.76829566,15.6721895 4.90831275,15.8134326 C5.02727464,15.9346487 5.18834694,16 5.35468304,16 C5.38416032,16 5.41469037,15.9978919 5.44416765,15.9936757 L9.4383395,15.4223789 C9.5730928,15.4034059 9.69942401,15.3401627 9.79522518,15.2442439 L18.5815611,6.44606212 C18.5826138,6.44500807 18.5847193,6.44289996 18.5857721,6.44184591 C18.5868249,6.44079186 18.5889304,6.43868375 18.5899831,6.4376297 L20.0659528,4.95984716 C20.4902151,4.53506374 20.7239279,3.97114529 20.7239279,3.37033499 C20.7239279,2.76952469 20.4912679,2.20455219 20.0680583,1.77976877 Z M9.236,13.88175 L6.432,14.28275 L6.833,11.47775 L14.3256081,3.97028091 L16.7286081,6.37328091 L9.236,13.88175 Z M18.851,4.26675 L17.869,5.24875 L15.466,2.84575 L16.448,1.86375 C16.801,1.50975 17.415,1.50975 17.767,1.86375 L18.851,2.94775 C19.028,3.12375 19.124,3.35875 19.124,3.60775 C19.124,3.85675 19.028,4.09075 18.851,4.26675 Z" id="Shape"></path>
            <path d="M19.2,10.6 L19.2,16.6 C19.2,19.137 18.137,20.2 15.6,20.2 L3.6,20.2 C1.063,20.2 0,19.137 0,16.6 L0,4.6 C0,2.063 1.063,1 3.6,1 L9.6,1 C9.932,1 10.2,1.269 10.2,1.6 C10.2,1.931 9.931,2.2 9.6,2.2 L3.6,2.2 C1.725,2.2 1.2,2.725 1.2,4.6 L1.2,16.6 C1.2,18.475 1.725,19 3.6,19 L15.6,19 C17.475,19 18,18.475 18,16.6 L18,10.6 C18,10.268 18.269,10 18.6,10 C18.931,10 19.2,10.268 19.2,10.6 Z" id="Path" stroke="#00A4AB" stroke-width="0.5"></path>
        </g>
    </g>
</svg>