<?xml version="1.0" encoding="UTF-8"?>
<svg width="26px" height="26px" viewBox="0 0 26 26" version="1.1" xmlns="http://www.w3.org/2000/svg" xmlns:xlink="http://www.w3.org/1999/xlink">
    <title>overdue</title>
    <g id="overdue" stroke="none" stroke-width="1" fill="none" fill-rule="evenodd">
        <path d="M18.5841367,4.00006404 C18.9930968,4.00509903 19.3390242,4.3055791 19.4034571,4.71174337 L19.4034571,4.71174337 L20.0926952,8.69382833 C20.1377139,8.95270686 20.0603718,9.21791054 19.8834479,9.41133014 C19.7065241,9.60474975 19.4501705,9.70435436 19.18989,9.68080788 L19.18989,9.68080788 L15.1864824,9.32155134 C14.7243339,9.28003584 14.3831545,8.86961976 14.4244369,8.40486136 C14.4657193,7.94010296 14.8738306,7.5969968 15.3359791,7.6385123 L15.3359791,7.6385123 L18.154,7.891 L18.1275314,7.86821339 C15.3497322,5.08957778 10.9094889,5.02783032 8.05780328,7.68297102 L7.86586994,7.86821339 C5.02494338,10.7099993 5.02494421,15.2911826 7.86586994,18.1329634 C10.7068009,20.9747493 15.2866004,20.9747493 18.1275314,18.1329634 C18.8377653,17.4225157 19.3674469,16.6049393 19.7213901,15.7318637 C20.0753246,14.8587902 20.2533492,13.9300376 20.2533492,13.0005881 C20.2440893,12.6824879 20.4084538,12.3845056 20.6824141,12.2227213 C20.9563744,12.060937 21.2966033,12.060937 21.5705635,12.2227213 C21.8445238,12.3845056 22.0088883,12.6824879 21.9996284,13.0005881 C21.9996284,14.1522462 21.7802159,15.3034628 21.3404835,16.388178 C20.9007391,17.4729015 20.2401704,18.4904583 19.3630492,19.3678428 C15.8545626,22.8773857 10.1398481,22.8773857 6.63136147,19.3678428 C3.1228791,15.8583051 3.12287992,10.1418667 6.63136147,6.63232378 C8.38560477,4.87755258 10.6908597,4 12.9967007,4 C14.6740613,4 16.3516459,4.46437338 17.8167974,5.39299157 L17.748314,5.00168676 C17.7015428,4.75274044 17.7683346,4.4958265 17.93028,4.30175635 C18.0922254,4.10768621 18.3322277,3.99694811 18.5841367,4.00006404 Z M12.4652544,8.73694681 C12.7087193,8.73337179 12.9433592,8.82147647 13.1156344,8.98115737 C13.2879097,9.14083826 13.3831223,9.3584718 13.3795468,9.58439896 L13.3795468,9.58439896 L13.3795468,12.750279 L17.3102761,12.750279 C17.8074706,12.750279 18.2105263,13.1242944 18.2105263,13.5856658 C18.2105263,14.0470372 17.8074706,14.4210526 17.3102761,14.4210526 L17.3102761,14.4210526 L12.4787765,14.4210526 C11.9819646,14.4208391 11.5792765,14.0471648 11.5790463,13.5861484 L11.5790463,13.5861484 L11.5790463,9.58439896 C11.5717534,9.12335857 11.9684219,8.74403737 12.4652544,8.73694681 Z" fill="#878787" fill-rule="nonzero"></path>
    </g>
</svg>