<?xml version="1.0" encoding="UTF-8"?>
<svg width="26px" height="26px" viewBox="0 0 26 26" version="1.1" xmlns="http://www.w3.org/2000/svg" xmlns:xlink="http://www.w3.org/1999/xlink">
    <title>success</title>
    <g id="success" stroke="none" stroke-width="1" fill="none" fill-rule="evenodd">
        <g id="Group-3" fill="#00A72D">
            <circle id="Oval" opacity="0.200000003" cx="13" cy="13" r="13"></circle>
            <path d="M18.6755889,10.9427066 L12.3832299,17.1556022 C12.1944538,17.3419996 11.946652,17.4358108 11.6988501,17.4358108 C11.4510483,17.4358108 11.2032465,17.3419996 11.0144704,17.1556022 L7.86837953,14.0491544 C7.48976383,13.6754846 7.48976383,13.071312 7.86837953,12.6976422 C8.24681794,12.3237974 8.85852337,12.3237974 9.23713907,12.6976422 L11.6988501,15.1283339 L17.3068294,9.59119446 C17.6852678,9.2173496 18.2969732,9.2173496 18.6755889,9.59119446 C19.0540274,9.96486426 19.0540274,10.5688618 18.6755889,10.9427066 Z" id="Path-Copy-13" fill-rule="nonzero"></path>
        </g>
    </g>
</svg>