<?xml version="1.0" encoding="UTF-8"?>
<svg width="24px" height="24px" viewBox="0 0 24 24" version="1.1" xmlns="http://www.w3.org/2000/svg" xmlns:xlink="http://www.w3.org/1999/xlink">
    <title>tab navigation / Patienten / inactive</title>
    <defs>
        <path d="M5.727,6.909 C5.727,5.104 7.196,3.636 9,3.636 C10.805,3.636 12.274,5.104 12.274,6.909 C12.274,8.714 10.805,10.181 9,10.181 C7.196,10.181 5.727,8.714 5.727,6.909 M12.05,10.725 C13.174,9.825 13.91,8.458 13.91,6.909 C13.91,4.202 11.707,2 9,2 C6.293,2 4.091,4.202 4.091,6.909 C4.091,8.458 4.827,9.825 5.951,10.725 C2.487,11.978 0,15.291 0,19.181 C0,19.634 0.367,20 0.819,20 C1.27,20 1.636,19.634 1.636,19.181 C1.636,15.122 4.941,11.818 9,11.818 C13.06,11.818 16.365,15.122 16.365,19.181 C16.365,19.634 16.731,20 17.182,20 C17.634,20 18,19.634 18,19.181 C18,15.291 15.514,11.978 12.05,10.725" id="path-1"></path>
    </defs>
    <g id="tab-navigation-/-Patienten-/-inactive" stroke="none" stroke-width="1" fill="none" fill-rule="evenodd">
        <g id="Group-Copy-2" transform="translate(0.000000, 2.000000)">
            <mask id="mask-2" fill="white">
                <use xlink:href="#path-1"></use>
            </mask>
            <use id="Mask" fill="#9D9D9D" xlink:href="#path-1"></use>
            <g id="Group-8" transform="translate(15.910000, 0.408500)" stroke="#979797" stroke-linecap="round" stroke-linejoin="round" stroke-width="1.5">
                <line x1="0" y1="3.71875" x2="7" y2="3.71875" id="Path-2"></line>
                <line x1="3.5" y1="0.388888889" x2="3.545" y2="6.68227778" id="Path-2-Copy"></line>
            </g>
        </g>
    </g>
</svg>